%YAML 1.1
%TAG !u! tag:unity3d.com,2011:
--- !u!114 &11400000
MonoBehaviour:
  m_ObjectHideFlags: 0
  m_CorrespondingSourceObject: {fileID: 0}
  m_PrefabInstance: {fileID: 0}
  m_PrefabAsset: {fileID: 0}
  m_GameObject: {fileID: 0}
  m_Enabled: 1
  m_EditorHideFlags: 0
  m_Script: {fileID: 11500000, guid: 7c3d755cf6cc936488afcb037b69341e, type: 3}
  m_Name: __actions_default_in_GrabGrip
  m_EditorClassIdentifier: 
  changeTolerance: 0.000001
  fullPath: /actions/default/in/GrabGrip
  actionSet: {fileID: 11400000, guid: bd2f8ee448d3ed84eb6b5856a969b533, type: 2}
  direction: 0
