%YAML 1.1
%TAG !u! tag:unity3d.com,2011:
--- !u!114 &11400000
MonoBehaviour:
  m_ObjectHideFlags: 0
  m_CorrespondingSourceObject: {fileID: 0}
  m_PrefabInstance: {fileID: 0}
  m_PrefabAsset: {fileID: 0}
  m_GameObject: {fileID: 0}
  m_Enabled: 1
  m_EditorHideFlags: 0
  m_Script: {fileID: 11500000, guid: 577c007131b1ece44b4f419644b21bb1, type: 3}
  m_Name: SteamVR_Input_ActionSet_default_In
  m_EditorClassIdentifier: 
  actionSet: {fileID: 0}
  listDirection: 0
  actions:
  - {fileID: 11400000, guid: 70f3de96a8adcb44ba961bcf1e0674db, type: 2}
  - {fileID: 11400000, guid: f511d8deec47f904aa068b5b53f69977, type: 2}
  - {fileID: 11400000, guid: 3aa3636a7ae9080479ab7e5670589ee9, type: 2}
  - {fileID: 11400000, guid: 25b8c9d049b4bf54190c5a8286040bf7, type: 2}
  - {fileID: 11400000, guid: 9b65fb9305f70f74da25ae269a81dd52, type: 2}
  - {fileID: 11400000, guid: 445ee7540a2c0c848b89daea997ec664, type: 2}
  - {fileID: 11400000, guid: 51365961a0b0c3c40a4f2f45971f7f35, type: 2}
  - {fileID: 11400000, guid: 94772b5f35a66e947a64817b1e51e531, type: 2}
  - {fileID: 11400000, guid: 06a6d494cfcb4d64c9be15861cd69b67, type: 2}
  InteractUI: {fileID: 11400000, guid: 70f3de96a8adcb44ba961bcf1e0674db, type: 2}
  Teleport: {fileID: 11400000, guid: f511d8deec47f904aa068b5b53f69977, type: 2}
  GrabPinch: {fileID: 11400000, guid: 3aa3636a7ae9080479ab7e5670589ee9, type: 2}
  GrabGrip: {fileID: 11400000, guid: 25b8c9d049b4bf54190c5a8286040bf7, type: 2}
  Pose: {fileID: 11400000, guid: 9b65fb9305f70f74da25ae269a81dd52, type: 2}
  SkeletonLeftHand: {fileID: 11400000, guid: 445ee7540a2c0c848b89daea997ec664, type: 2}
  SkeletonRightHand: {fileID: 11400000, guid: 51365961a0b0c3c40a4f2f45971f7f35, type: 2}
  Squeeze: {fileID: 11400000, guid: 94772b5f35a66e947a64817b1e51e531, type: 2}
  testAction: {fileID: 11400000, guid: 06a6d494cfcb4d64c9be15861cd69b67, type: 2}
