%YAML 1.1
%TAG !u! tag:unity3d.com,2011:
--- !u!1001 &2324808910423038202
PrefabInstance:
  m_ObjectHideFlags: 0
  serializedVersion: 2
  m_Modification:
    m_TransformParent: {fileID: 0}
    m_Modifications:
    - target: {fileID: 1000010271227504, guid: 4f8a76d2be4d1cb40a9aa32921fcb73c, type: 3}
      propertyPath: m_TagString
      value: Untagged
      objectReference: {fileID: 0}
    - target: {fileID: 1000010271227504, guid: 4f8a76d2be4d1cb40a9aa32921fcb73c, type: 3}
      propertyPath: m_IsActive
      value: 1
      objectReference: {fileID: 0}
    - target: {fileID: 1000010271227504, guid: 4f8a76d2be4d1cb40a9aa32921fcb73c, type: 3}
      propertyPath: m_Layer
      value: 5
      objectReference: {fileID: 0}
    - target: {fileID: 4000014285432570, guid: 4f8a76d2be4d1cb40a9aa32921fcb73c, type: 3}
      propertyPath: m_LocalPosition.x
      value: 0.057960987
      objectReference: {fileID: 0}
    - target: {fileID: 4000014285432570, guid: 4f8a76d2be4d1cb40a9aa32921fcb73c, type: 3}
      propertyPath: m_LocalPosition.y
      value: -1.291682
      objectReference: {fileID: 0}
    - target: {fileID: 4000014285432570, guid: 4f8a76d2be4d1cb40a9aa32921fcb73c, type: 3}
      propertyPath: m_LocalPosition.z
      value: 0.008744121
      objectReference: {fileID: 0}
    - target: {fileID: 4000014285432570, guid: 4f8a76d2be4d1cb40a9aa32921fcb73c, type: 3}
      propertyPath: m_LocalRotation.x
      value: -0.48048025
      objectReference: {fileID: 0}
    - target: {fileID: 4000014285432570, guid: 4f8a76d2be4d1cb40a9aa32921fcb73c, type: 3}
      propertyPath: m_LocalRotation.y
      value: -0.5186264
      objectReference: {fileID: 0}
    - target: {fileID: 4000014285432570, guid: 4f8a76d2be4d1cb40a9aa32921fcb73c, type: 3}
      propertyPath: m_LocalRotation.z
      value: -0.5187859
      objectReference: {fileID: 0}
    - target: {fileID: 4000014285432570, guid: 4f8a76d2be4d1cb40a9aa32921fcb73c, type: 3}
      propertyPath: m_LocalRotation.w
      value: 0.48065227
      objectReference: {fileID: 0}
    - target: {fileID: 4000014285432570, guid: 4f8a76d2be4d1cb40a9aa32921fcb73c, type: 3}
      propertyPath: m_RootOrder
      value: 0
      objectReference: {fileID: 0}
    - target: {fileID: 4000014285432570, guid: 4f8a76d2be4d1cb40a9aa32921fcb73c, type: 3}
      propertyPath: m_LocalEulerAnglesHint.x
      value: -89.981
      objectReference: {fileID: 0}
    - target: {fileID: 4000014285432570, guid: 4f8a76d2be4d1cb40a9aa32921fcb73c, type: 3}
      propertyPath: m_LocalEulerAnglesHint.z
      value: -90
      objectReference: {fileID: 0}
    - target: {fileID: 4000014285432570, guid: 4f8a76d2be4d1cb40a9aa32921fcb73c, type: 3}
      propertyPath: m_LocalScale.x
      value: 75.00007
      objectReference: {fileID: 0}
    - target: {fileID: 4000014285432570, guid: 4f8a76d2be4d1cb40a9aa32921fcb73c, type: 3}
      propertyPath: m_LocalScale.y
      value: 63.139133
      objectReference: {fileID: 0}
    - target: {fileID: 4000014285432570, guid: 4f8a76d2be4d1cb40a9aa32921fcb73c, type: 3}
      propertyPath: m_LocalScale.z
      value: 83.69189
      objectReference: {fileID: 0}
    - target: {fileID: 64000012809670884, guid: 4f8a76d2be4d1cb40a9aa32921fcb73c,
        type: 3}
      propertyPath: m_Convex
      value: 1
      objectReference: {fileID: 0}
    - target: {fileID: 64000012809670884, guid: 4f8a76d2be4d1cb40a9aa32921fcb73c,
        type: 3}
      propertyPath: m_IsTrigger
      value: 0
      objectReference: {fileID: 0}
    - target: {fileID: 64000012809670884, guid: 4f8a76d2be4d1cb40a9aa32921fcb73c,
        type: 3}
      propertyPath: m_Enabled
      value: 0
      objectReference: {fileID: 0}
    m_RemovedComponents: []
  m_SourcePrefab: {fileID: 100100000, guid: 4f8a76d2be4d1cb40a9aa32921fcb73c, type: 3}
